<svg width="100" height="103" viewBox="0 0 100 103" version="1.1" xmlns="http://www.w3.org/2000/svg" xmlns:xlink="http://www.w3.org/1999/xlink">
<title>Group</title>
<desc>Created using Figma</desc>
<g id="Canvas" transform="translate(1613 -7725)">
<g id="Group">
<g id="Group">
<g id="Vector">
<use xlink:href="#path0_fill" transform="translate(-1612.79 7725.73)"/>
</g>
<g id="Vector">
<use xlink:href="#path1_fill" transform="translate(-1602.34 7796.85)"/>
</g>
<g id="Vector">
<use xlink:href="#path2_fill" transform="translate(-1582.24 7796.85)"/>
</g>
<g id="Vector">
<use xlink:href="#path3_fill" transform="translate(-1562.14 7796.85)"/>
</g>
<g id="Vector">
<use xlink:href="#path4_fill" transform="translate(-1542.1 7796.85)"/>
</g>
<g id="Vector">
<use xlink:href="#path5_fill" transform="translate(-1600.92 7812.01)"/>
</g>
<g id="Vector">
<use xlink:href="#path6_fill" transform="translate(-1580.82 7812.01)"/>
</g>
<g id="Vector">
<use xlink:href="#path7_fill" transform="translate(-1560.66 7812.01)"/>
</g>
</g>
</g>
</g>
<defs>
<path id="path0_fill" d="M 74.2108 16.9633C 73.6631 16.9633 73.1702 16.9633 72.6226 17.018C 68.2959 6.89477 57.9995 0 46.6625 0C 31.1631 0 18.5664 12.3121 18.5664 27.5244C 18.5664 27.5791 18.5664 27.6338 18.5664 27.6885C 8.21522 28.4546 0 36.991 0 47.3332C 0 58.2225 9.03674 67.0872 20.1547 67.0872L 74.2108 67.0872C 88.341 67.0872 99.7876 55.8148 99.7876 42.0253C 99.7876 28.181 88.2862 16.9633 74.2108 16.9633ZM 74.2108 60.5208L 20.1547 60.5208C 12.6514 60.5208 6.57218 54.611 6.57218 47.3332C 6.57218 40.0553 12.6514 34.1455 20.1547 34.1455C 20.5928 34.1455 21.1405 34.2003 21.743 34.255C 22.7835 34.3644 23.7694 34.0361 24.4814 33.27C 25.1933 32.5586 25.522 31.519 25.3576 30.534C 25.1933 29.4943 25.1386 28.4546 25.1386 27.4696C 25.1386 15.9784 34.8325 6.56645 46.6625 6.56645C 56.0826 6.56645 64.5716 12.6951 67.2553 21.5051C 67.7482 23.092 69.3365 24.077 70.9247 23.8034C 71.9653 23.6392 73.0607 23.5298 74.1561 23.5298C 84.6168 23.5298 93.1606 31.8473 93.1606 42.0253C 93.2154 52.2033 84.6715 60.5208 74.2108 60.5208Z"/>
<path id="path1_fill" d="M 5.60004 15.0071L 15.0202 5.59516C 16.2798 4.33659 16.2798 2.25722 15.0202 0.943925C 13.7605 -0.314644 11.6793 -0.314644 10.3649 0.943925L 0.94475 10.3558C -0.314917 11.6144 -0.314917 13.6938 0.94475 15.0071C 1.60197 15.6637 2.42349 15.992 3.24501 15.992C 4.1213 15.992 4.99759 15.6637 5.60004 15.0071Z"/>
<path id="path2_fill" d="M 5.60004 15.0071L 15.0202 5.59516C 16.2798 4.33659 16.2798 2.25722 15.0202 0.943925C 13.7605 -0.314644 11.6793 -0.314644 10.3649 0.943925L 0.94475 10.3558C -0.314917 11.6144 -0.314917 13.6938 0.94475 15.0071C 1.60197 15.6637 2.42349 15.992 3.24501 15.992C 4.1213 15.992 4.94282 15.6637 5.60004 15.0071Z"/>
<path id="path3_fill" d="M 5.60004 15.0071L 15.0202 5.59516C 16.2798 4.33659 16.2798 2.25722 15.0202 0.943925C 13.7605 -0.314644 11.6793 -0.314644 10.3649 0.943925L 0.944749 10.3558C -0.314918 11.6144 -0.314918 13.6938 0.944749 15.0071C 1.60197 15.6637 2.42349 15.992 3.24501 15.992C 4.1213 15.992 4.94282 15.6637 5.60004 15.0071Z"/>
<path id="path4_fill" d="M 10.3649 0.943925L 0.944752 10.3558C -0.314915 11.6144 -0.314915 13.6938 0.944752 15.0071C 1.60197 15.6637 2.42349 15.992 3.24501 15.992C 4.06653 15.992 4.94282 15.6637 5.54527 15.0071L 14.9654 5.59516C 16.2251 4.33659 16.2251 2.25722 14.9654 0.943925C 13.7605 -0.314644 11.6793 -0.314644 10.3649 0.943925Z"/>
<path id="path5_fill" d="M 10.3649 0.943924L 0.94475 10.3558C -0.314917 11.6144 -0.314917 13.6938 0.94475 15.0071C 1.60197 15.6637 2.42349 15.992 3.24501 15.992C 4.06653 15.992 4.94282 15.6637 5.54527 15.0071L 14.9654 5.59516C 16.2251 4.33659 16.2251 2.25721 14.9654 0.943924C 13.7057 -0.314646 11.6245 -0.314646 10.3649 0.943924Z"/>
<path id="path6_fill" d="M 10.3649 0.943924L 0.94475 10.3558C -0.314918 11.6144 -0.314918 13.6938 0.94475 15.0071C 1.60197 15.6637 2.42349 15.992 3.24501 15.992C 4.06654 15.992 4.94283 15.6637 5.54527 15.0071L 14.9654 5.59516C 16.2251 4.33659 16.2251 2.25721 14.9654 0.943924C 13.7605 -0.314646 11.6793 -0.314646 10.3649 0.943924Z"/>
<path id="path7_fill" d="M 10.3649 0.943924L 0.944751 10.3558C -0.314916 11.6144 -0.314916 13.6938 0.944751 15.0071C 1.60197 15.6637 2.42349 15.992 3.24501 15.992C 4.06653 15.992 4.94283 15.6637 5.54528 15.0071L 14.9654 5.59516C 16.2251 4.33659 16.2251 2.25721 14.9654 0.943924C 13.7605 -0.314646 11.6793 -0.314646 10.3649 0.943924Z"/>
</defs>
</svg>
