<?xml version="1.0" encoding="utf-8"?>
<!-- Generator: Adobe Illustrator 21.0.0, SVG Export Plug-In . SVG Version: 6.00 Build 0)  -->
<svg version="1.1" id="Слой_1" xmlns="http://www.w3.org/2000/svg" xmlns:xlink="http://www.w3.org/1999/xlink" x="0px" y="0px"
	 viewBox="0 0 28 28" style="enable-background:new 0 0 28 28;" xml:space="preserve">
<style type="text/css">
	.st0{fill:#FFFFFF;}
</style>
<path id="path0_stroke" class="st0" d="M8.7,6.1l0.4-0.3C9,5.7,8.9,5.6,8.8,5.6c-0.1,0-0.3,0-0.4,0.1L8.7,6.1z M6.4,8.2L6.1,7.8
	c0,0,0,0,0,0L6.4,8.2z M19.8,21.6l0.4,0.4c0,0,0,0,0,0L19.8,21.6z M21.9,19.3l0.4,0.3c0.1-0.1,0.1-0.2,0.1-0.4
	c0-0.1-0.1-0.3-0.2-0.3L21.9,19.3z M18.3,16.1l0.3-0.4c-0.2-0.1-0.4-0.2-0.6-0.1L18.3,16.1z M15.4,17.6l-0.4,0.4
	c0.2,0.2,0.4,0.2,0.6,0.1L15.4,17.6z M10.4,12.6L10,12.3c-0.1,0.2-0.1,0.4,0.1,0.6L10.4,12.6z M11.9,9.7l0.4,0.2
	c0.1-0.2,0.1-0.4-0.1-0.6L11.9,9.7z M8.4,5.7L6.1,7.8l0.7,0.7l2.3-2.1L8.4,5.7z M6.1,7.8C5.6,8.3,5.5,8.9,5.7,9.5
	c0.1,0.6,0.4,1.4,0.8,2.2c0.9,1.6,2.4,3.5,4.3,5.4l0.7-0.7c-1.8-1.8-3.3-3.7-4.1-5.2C7,10.5,6.7,9.9,6.6,9.4c-0.1-0.5,0-0.7,0.1-0.8
	L6.1,7.8z M10.8,17.1c1.9,1.9,3.8,3.4,5.5,4.3c0.8,0.5,1.6,0.8,2.2,0.9c0.6,0.1,1.3,0.1,1.7-0.4l-0.7-0.7c-0.1,0.1-0.3,0.2-0.8,0.1
	c-0.5-0.1-1.2-0.4-1.9-0.8c-1.5-0.9-3.4-2.3-5.2-4.1L10.8,17.1z M20.2,22l2.1-2.4l-0.7-0.7l-2.1,2.4L20.2,22z M22.2,18.9l-3.6-3.1
	L18,16.5l3.6,3.1L22.2,18.9z M18.1,15.7l-2.9,1.4l0.4,0.9l2.9-1.4L18.1,15.7z M15.8,17.2l-5-5l-0.7,0.7l5,5L15.8,17.2z M10.9,12.8
	l1.4-2.9l-0.9-0.4L10,12.3L10.9,12.8z M12.2,9.3L9.1,5.8L8.4,6.4l3.1,3.6L12.2,9.3z"/>
<path id="path1_stroke" class="st0" d="M26.1,19.4c-0.1,0.3,0,0.5,0.2,0.7c0.3,0.1,0.5,0,0.7-0.2L26.1,19.4z M21.3,25.4L21,24.9
	c0,0,0,0,0,0L21.3,25.4z M21.6,20.5c-0.2-0.2-0.5-0.2-0.7,0c-0.2,0.2-0.2,0.5,0,0.7L21.6,20.5z M27,19.8c0.8-1.8,1-3.8,1-5.8h-1
	c0,2-0.1,3.8-0.9,5.4L27,19.8z M28,14c0-7.7-6.3-14-14-14v1c7.2,0,13,5.8,13,13H28z M14,0C6.3,0,0,6.3,0,14h1C1,6.8,6.8,1,14,1V0z
	 M0,14c0,7.7,6.3,14,14,14v-1C6.8,27,1,21.2,1,14H0z M14,28c2.8,0,5.4-0.8,7.5-2.2L21,24.9c-2,1.3-4.4,2.1-7,2.1V28z M21.3,25.4
	c0.2,0.4,0.2,0.4,0.2,0.4c0,0,0,0,0,0c0,0,0,0,0,0c0,0,0,0,0,0c0,0,0,0,0,0c0,0,0,0,0,0c0,0,0.1,0,0.1-0.1c0.1-0.1,0.2-0.1,0.3-0.2
	c0.3-0.2,0.6-0.6,0.8-1c0.2-0.5,0.3-1.1,0.2-1.7c-0.2-0.7-0.6-1.4-1.3-2.2l-0.7,0.7c0.7,0.7,1,1.3,1.1,1.8c0.1,0.5,0,0.8-0.1,1.1
	c-0.1,0.3-0.3,0.5-0.5,0.7c-0.1,0.1-0.2,0.1-0.2,0.2c0,0-0.1,0-0.1,0c0,0,0,0,0,0c0,0,0,0,0,0c0,0,0,0,0,0c0,0,0,0,0,0c0,0,0,0,0,0
	C21,24.9,21,24.9,21.3,25.4z"/>
</svg>
