<svg width="94" height="112" viewBox="0 0 94 112" version="1.1" xmlns="http://www.w3.org/2000/svg" xmlns:xlink="http://www.w3.org/1999/xlink">
<title>Vector</title>
<desc>Created using Figma</desc>
<g id="Canvas" transform="translate(-813 -16701)">
<g id="Vector">
<use xlink:href="#path0_fill" transform="translate(813 16701)" fill="#4A4A4A"/>
</g>
</g>
<defs>
<path id="path0_fill" d="M 93.6338 41.0807L 68.4436 1.07737C 68.0206 0.421581 67.2687 0 66.5167 0L 53.9216 0C 52.6527 0 51.6188 1.03053 51.6188 2.29527L 51.6188 6.88582L 42.4074 6.88582L 42.4074 4.59055L 49.269 4.59055L 49.269 0L 27.5095 0C 26.7106 0 26.0056 0.421581 25.5826 1.07737L 0.345426 41.0807C 0.0164488 41.596 -0.0775445 42.2518 0.0634455 42.8607C 0.204436 43.4697 0.627405 43.9849 1.19137 44.3128L 11.5306 50.0276C 12.6116 50.6366 13.9275 50.2618 14.5854 49.2313L 25.2537 32.0401L 25.2537 109.705C 25.2537 110.969 26.2876 112 27.5565 112L 40.1516 112C 41.2795 112 42.2195 111.204 42.4074 110.126L 46.9661 84.7846L 51.5718 110.126C 51.7598 111.204 52.6997 112 53.8276 112L 66.4227 112C 67.6917 112 68.7256 110.969 68.7256 109.705L 68.7256 32.0401L 79.3938 49.2313C 80.0518 50.2618 81.3677 50.6366 82.4486 50.0276L 92.7879 44.3128C 93.3518 43.9849 93.7278 43.4697 93.9158 42.8607C 94.1038 42.2518 93.9628 41.596 93.6338 41.0807ZM 25.2067 17.1443L 25.2067 23.3743L 11.7656 44.9686L 5.46806 41.5023L 28.7784 4.59055L 37.8488 4.59055L 37.8488 6.88582C 37.8488 9.41531 39.9166 11.4764 42.4544 11.4764L 44.7573 11.4764L 44.7573 24.0301C 44.7573 24.0301 44.7103 24.967 44.2873 25.857C 43.7234 26.9812 42.8304 27.4496 41.3265 27.4496L 29.7653 27.4496L 29.7653 17.1443L 25.2067 17.1443ZM 29.7653 52.5571L 32.0682 52.5571L 32.0682 85.6746C 32.0682 85.7683 32.0212 86.6583 31.4572 87.5015C 31.0812 88.0636 30.5173 88.4852 29.7653 88.7662L 29.7653 52.5571ZM 64.1669 107.456L 55.7545 107.456L 49.222 71.6219C 49.034 70.5445 48.094 69.7482 46.9661 69.7482C 45.8382 69.7482 44.8983 70.5445 44.7103 71.6219L 38.1777 107.456L 29.7653 107.456L 29.7653 93.5441C 35.3579 92.5136 36.6269 87.7357 36.6269 85.7683L 36.6269 52.6039L 37.7548 52.6039C 37.7548 55.1334 39.8226 57.1945 42.3604 57.1945L 51.5248 57.1945C 54.0626 57.1945 56.1305 55.1334 56.1305 52.6039L 57.2584 52.6039L 57.2584 85.7215C 57.2584 87.6888 58.5743 92.4668 64.1199 93.4973L 64.1199 107.456L 64.1669 107.456ZM 42.4074 52.5571L 42.4074 47.9665L 51.5718 47.9665L 51.5718 52.5571L 42.4074 52.5571ZM 64.1669 88.813C 63.415 88.532 62.851 88.1104 62.475 87.5483C 61.9111 86.7051 61.8641 85.8151 61.8641 85.7215L 61.8641 52.6039L 64.1669 52.6039L 64.1669 88.813ZM 64.1669 48.0134L 56.1305 48.0134C 56.1305 45.4839 54.0626 43.4228 51.5248 43.4228L 49.222 43.4228L 49.222 35.4128L 44.6163 35.4128L 44.6163 43.4228L 42.3135 43.4228C 39.7756 43.4228 37.7078 45.4839 37.7078 48.0134L 29.7653 48.0134L 29.7653 31.9933L 41.2325 31.9933C 43.8173 31.9933 45.6972 31.0565 46.9661 29.7449C 48.235 31.0565 50.1149 31.9933 52.6997 31.9933L 64.1669 31.9933L 64.1669 48.0134ZM 82.1666 44.9686L 68.7726 23.3743L 68.7726 17.1443L 64.1669 17.1443L 64.1669 27.4496L 52.6997 27.4496C 50.8199 27.4496 50.1149 26.6064 49.7859 25.9506C 49.269 25.0138 49.269 24.0301 49.269 24.0301L 49.269 11.4295L 51.5718 11.4295C 54.1096 11.4295 56.1775 9.36847 56.1775 6.83898L 56.1775 4.59055L 65.2478 4.59055L 88.5112 41.5023L 82.1666 44.9686Z"/>
</defs>
</svg>
