<svg width="131" height="90" viewBox="0 0 131 90" version="1.1" xmlns="http://www.w3.org/2000/svg" xmlns:xlink="http://www.w3.org/1999/xlink">
<title>Vector</title>
<desc>Created using Figma</desc>
<g id="Canvas" transform="translate(-1320 -16712)">
<g id="Vector">
<use xlink:href="#path0_fill" transform="translate(1320 16712)" fill="#4A4A4A"/>
</g>
</g>
<defs>
<path id="path0_fill" d="M 129.977 84.378L 129.977 77.676C 129.977 76.6278 129.113 75.7702 128.058 75.7702C 127.002 75.7702 126.139 76.6278 126.139 77.676L 126.139 82.4404C 120.222 75.6432 114.657 68.3377 109.508 60.5241L 109.508 48.0731L 122.844 48.0731C 124.284 48.0731 125.563 47.2155 126.107 45.8814C 126.65 44.5474 126.363 43.0545 125.307 42.0381L 114.113 31.0164L 119.454 31.0164C 120.894 31.0164 122.173 30.1588 122.717 28.8248C 123.26 27.4907 122.972 25.9979 121.917 24.9815L 112.354 15.5797C 113.602 15.4209 114.689 14.6268 115.201 13.4198C 115.744 12.0858 115.457 10.5929 114.401 9.5765L 105.67 1.00053C 104.295 -0.33351 102.056 -0.33351 100.681 1.00053L 91.9495 9.5765C 90.926 10.5929 90.6062 12.0858 91.1499 13.4198C 91.6296 14.595 92.717 15.4209 93.9963 15.5797L 84.4336 24.9815C 83.4102 25.9979 83.0903 27.4907 83.634 28.8248C 84.1777 30.1588 85.457 31.0164 86.8962 31.0164L 92.2373 31.0164L 91.2139 32.0328L 70.5212 32.0328L 69.4978 31.0164L 74.8708 31.0164C 76.3101 31.0164 77.5894 30.1588 78.1331 28.8248C 78.6768 27.4907 78.3889 25.9979 77.3335 24.9815L 67.7708 15.5797C 69.0181 15.4209 70.1055 14.6268 70.6172 13.4198C 71.1609 12.0858 70.873 10.5929 69.8176 9.5765L 61.0864 1.00053C 59.7112 -0.33351 57.4724 -0.33351 56.0972 1.00053L 47.366 9.5765C 46.3425 10.5929 46.0227 12.0858 46.5664 13.4198C 47.0461 14.595 48.1335 15.4209 49.4128 15.5797L 39.8501 24.9497C 38.8267 25.9661 38.5068 27.459 39.0505 28.793C 39.5942 30.1271 40.8735 30.9846 42.3127 30.9846L 47.6538 30.9846L 46.6304 32.0011L 38.3149 32.0011C 38.251 32.0011 38.219 32.0011 38.155 32.0011C 38.123 32.0011 38.0911 32.0011 38.0591 32.0011C 37.3235 32.0011 36.6519 32.414 36.332 33.081C 27.8887 50.6458 17.9102 66.2732 5.94873 80.757L 5.94873 77.676C 5.94873 76.6278 5.08521 75.7702 4.02979 75.7702C 2.97437 75.7702 2.11084 76.6278 2.11084 77.676L 2.11084 84.1556L 1.91895 84.1556C 0.863525 84.1556 0 85.0132 0 86.0614C 0 87.1096 0.863525 87.9672 1.91895 87.9672L 2.30273 87.9672L 2.30273 88.0942C 2.30273 89.1424 3.16626 90 4.22168 90C 5.2771 90 6.14062 89.1424 6.14062 88.0942L 6.14062 87.9672L 70.1055 87.9672L 70.1055 88.0942C 70.1055 89.1424 70.969 90 72.0244 90C 73.0798 90 73.9434 89.1424 73.9434 88.0942L 73.9434 87.9672L 126.139 87.9672L 126.139 88.0942C 126.139 89.1424 127.002 90 128.058 90C 129.113 90 129.977 89.1424 129.977 88.0942L 129.977 87.7448C 130.584 87.4272 131 86.7919 131 86.0614C 131 85.3309 130.584 84.6956 129.977 84.378ZM 87.7278 27.2366L 97.2585 17.8666C 98.282 16.8502 98.6018 15.3573 98.0581 14.0233C 97.5784 12.8481 96.491 12.0222 95.2117 11.8634L 103.239 3.98624L 111.267 11.8634C 110.02 12.0222 108.932 12.8163 108.42 14.0233C 107.877 15.3573 108.165 16.8502 109.22 17.8666L 118.751 27.2366L 113.378 27.2366C 111.938 27.2366 110.659 28.0942 110.115 29.4283C 109.572 30.7623 109.86 32.2552 110.915 33.2716L 122.109 44.2933L 99.6892 44.2933C 97.8982 41.0217 96.1711 37.7184 94.5081 34.3197L 95.5635 33.2716C 96.5869 32.2552 96.9067 30.7623 96.363 29.4283C 95.8193 28.0942 94.54 27.2366 93.1008 27.2366L 87.7278 27.2366ZM 105.67 48.0731L 105.67 54.5209C 104.359 52.3928 103.079 50.2647 101.832 48.0731L 105.67 48.0731ZM 43.2083 27.2366L 52.739 17.8666C 53.7624 16.8502 54.0823 15.3573 53.5386 14.0233C 53.0588 12.8481 51.9714 12.0222 50.6921 11.8634L 58.7197 3.98624L 66.7473 11.8634C 65.5 12.0222 64.4126 12.8163 63.9009 14.0233C 63.3572 15.3573 63.677 16.8502 64.7004 17.8666L 74.2312 27.2366L 68.8582 27.2366C 67.4189 27.2366 66.1396 28.0942 65.5959 29.4283C 65.2441 30.2859 65.2441 31.2388 65.5959 32.0646L 51.8755 32.0646C 52.2273 31.2388 52.2273 30.2859 51.8755 29.4283C 51.3318 28.0942 50.0525 27.2366 48.6133 27.2366L 43.2083 27.2366ZM 91.022 35.8761C 91.4377 36.7337 91.8535 37.5596 92.3013 38.4172L 82.5146 38.4172C 81.4592 38.4172 80.5957 39.2747 80.5957 40.3229L 80.5957 57.316C 80.5957 58.2372 79.8601 58.9995 78.9326 58.9995C 78.0051 58.9995 77.2695 58.2372 77.2695 57.316L 77.2695 42.4828C 77.2695 41.4346 76.406 40.577 75.3506 40.577C 74.2952 40.577 73.4316 41.4346 73.4316 42.4828L 73.4316 44.8968C 73.4316 45.8179 72.696 46.5484 71.7686 46.5484C 70.8411 46.5484 70.1055 45.8179 70.1055 44.8968L 70.1055 40.3229C 70.1055 39.2747 69.2419 38.4172 68.1865 38.4172L 42.6006 38.4172C 42.1528 37.5596 41.7371 36.7337 41.3213 35.8761L 91.022 35.8761ZM 19.7651 84.1556L 8.34741 84.1556C 19.2854 71.0693 28.5603 57.0619 36.5879 41.5934L 36.5879 59.5394L 19.7651 84.1556ZM 25.458 82.5993L 34.8608 68.8459L 32.6221 80.3759L 25.458 82.5993ZM 33.3577 84.1556L 34.8608 83.6792C 35.5325 83.4568 36.0442 82.9169 36.1721 82.2181L 38.5708 69.8624L 41.0974 81.9958C 41.2253 82.6628 41.7051 83.2028 42.3767 83.4251L 44.5835 84.1556L 33.3577 84.1556ZM 44.6475 80.1535L 42.3447 69.1318L 51.4597 82.4404L 44.6475 80.1535ZM 73.9434 84.1556L 73.9434 77.7713C 73.9434 76.7231 73.1438 75.8338 72.0884 75.802C 71.001 75.7702 70.1055 76.6278 70.1055 77.7078L 70.1055 80.09C 66.5554 75.8655 63.1333 71.4505 59.8391 66.8449C 59.1675 65.892 57.7922 65.765 56.9607 66.5908L 56.9287 66.6226C 56.2891 67.2578 56.1931 68.306 56.7048 69.0365C 60.4788 74.3092 64.4126 79.3594 68.5383 84.1556L 57.2485 84.1556L 40.4258 59.5712L 40.4258 42.5463C 43.3362 48.0413 46.3745 53.3457 49.6047 58.4595C 50.2444 59.4759 51.7156 59.6665 52.5791 58.8089L 52.6111 58.7771C 53.2507 58.1419 53.3467 57.189 52.8669 56.4267C 49.9885 51.8528 47.238 47.1202 44.6155 42.2287L 66.2676 42.2287L 66.2676 44.7697C 66.2676 47.5648 68.3464 50.0106 71.1609 50.3282C 71.9604 50.4235 72.728 50.3282 73.4316 50.1059L 73.4316 57.316C 73.4316 60.3335 75.8943 62.811 78.9326 62.811C 81.9709 62.811 84.4336 60.3335 84.4336 57.316L 84.4336 42.2287L 94.2522 42.2287C 97.8342 49.0577 101.704 55.6326 105.83 61.8899C 105.926 62.1122 106.054 62.3028 106.214 62.4616C 111.299 70.1482 116.736 77.3901 122.557 84.1556L 73.9434 84.1556Z"/>
</defs>
</svg>
