<?xml version="1.0" encoding="utf-8"?>
<!-- Generator: Adobe Illustrator 21.0.0, SVG Export Plug-In . SVG Version: 6.00 Build 0)  -->
<svg version="1.1" id="Слой_1" xmlns="http://www.w3.org/2000/svg" xmlns:xlink="http://www.w3.org/1999/xlink" x="0px" y="0px"
	 viewBox="0 0 28.4 18" style="enable-background:new 0 0 28.4 18;" xml:space="preserve">
<style type="text/css">
	.st0{fill:#FFFFFF;}
</style>
<path id="path0_fill" class="st0" d="M26.2,16.5H2.2c-0.4,0-0.7-0.3-0.7-0.8V2.9l11.1,7.4c0.5,0.3,1.1,0.5,1.7,0.5
	c0.6,0,1.2-0.2,1.7-0.5l11.1-7.4v12.8C26.9,16.2,26.6,16.5,26.2,16.5z M26.2,1.5c0,0,0.1,0,0.1,0L15,9c-0.4,0.3-1.2,0.3-1.7,0
	L2.1,1.5c0,0,0.1,0,0.1,0H26.2L26.2,1.5z M26.2,0H2.2C1,0,0,1,0,2.3v13.5C0,17,1,18,2.2,18h23.9c1.2,0,2.2-1,2.2-2.3V2.3
	C28.4,1,27.4,0,26.2,0z"/>
</svg>
