<svg width="76" height="103" viewBox="0 0 76 103" version="1.1" xmlns="http://www.w3.org/2000/svg" xmlns:xlink="http://www.w3.org/1999/xlink">
<title>Group</title>
<desc>Created using Figma</desc>
<g id="Canvas" transform="translate(-1886 -16705)">
<g id="Group">
<g id="Vector">
<use xlink:href="#path0_fill" transform="translate(1886 16712.3)" fill="#4A4A4A"/>
</g>
<g id="Vector">
<use xlink:href="#path1_fill" transform="translate(1917.94 16705)" fill="#4A4A4A"/>
</g>
</g>
</g>
<defs>
<path id="path0_fill" d="M 15.2498 57.6468L 15.2498 13.2741C 17.5633 12.1428 19.1804 9.75445 19.1804 6.98902C 19.1804 3.14254 16.0707 -9.59028e-08 12.2645 -9.59028e-08C 8.45827 -9.59028e-08 5.34861 3.14254 5.34861 6.98902C 5.34861 9.75445 6.96563 12.1679 9.27921 13.2741L 9.27921 57.6468C 3.95548 59.0044 0 63.8816 0 69.689L 0 95.7093L 24.529 95.7093L 24.529 69.689C 24.529 63.8816 20.5735 59.0044 15.2498 57.6468ZM 12.2645 6.03368C 12.7869 6.03368 13.2098 6.46107 13.2098 6.98902C 13.2098 7.51696 12.7869 7.94435 12.2645 7.94435C 11.7421 7.94435 11.3191 7.51696 11.3191 6.98902C 11.3191 6.46107 11.7421 6.03368 12.2645 6.03368ZM 18.5584 89.6756L 5.97054 89.6756L 5.97054 69.689C 5.97054 67.2756 7.31391 65.1638 9.27921 64.0827L 9.27921 74.1137L 15.2498 74.1137L 15.2498 64.0827C 17.2151 65.1638 18.5584 67.2756 18.5584 69.689L 18.5584 89.6756Z"/>
<path id="path1_fill" d="M 38.2612 17.2966C 36.3954 12.1428 34.1565 8.07005 31.6687 5.15377C 29.6537 2.79058 26.3201 0 22.0164 0C 17.6877 0 14.3791 2.79058 12.364 5.15377C 9.85139 8.07005 7.63732 12.1428 5.77152 17.2966C 2.06481 27.5035 -1.51839e-06 41.0039 -1.51839e-06 55.3088C -1.51839e-06 74.2143 3.58232 91.5109 9.57774 101.542L 10.4484 103L 33.6092 103L 34.4799 101.542C 40.4753 91.5109 44.0576 74.2394 44.0576 55.3088C 44.0327 40.9788 41.9928 27.4784 38.2612 17.2966ZM 19.0311 96.9412L 13.8566 96.9412C 8.95581 87.6895 5.94566 71.9768 5.94566 55.2836C 5.94566 41.6827 7.86121 28.9114 11.344 19.3581C 13.5581 13.249 16.2946 8.94996 19.0311 7.06444L 19.0311 96.9412ZM 30.1761 96.9412L 25.0016 96.9412L 25.0016 7.08958C 27.7381 8.9751 30.4498 13.2741 32.6887 19.3581C 36.1715 28.9114 38.0871 41.6576 38.0871 55.2836C 38.0622 71.9768 35.052 87.6895 30.1761 96.9412Z"/>
</defs>
</svg>
