<?xml version="1.0" encoding="utf-8"?>
<!-- Generator: Adobe Illustrator 21.0.0, SVG Export Plug-In . SVG Version: 6.00 Build 0)  -->
<svg version="1.1" id="Слой_1" xmlns="http://www.w3.org/2000/svg" xmlns:xlink="http://www.w3.org/1999/xlink" x="0px" y="0px"
	 viewBox="0 0 18 17" style="enable-background:new 0 0 18 17;" xml:space="preserve">
<style type="text/css">
	.st0{fill:#FFFFFF;}
</style>
<g>
	<path id="path1_stroke" class="st0" d="M1,0C0.4,0,0,0.4,0,1s0.4,1,1,1V0z M17,2c0.6,0,1-0.4,1-1s-0.4-1-1-1V2z M1,2h16V0H1V2z"/>
	<path id="path0_stroke" class="st0" d="M1,5C0.4,5,0,5.5,0,6s0.4,1,1,1V5z M17,7c0.6,0,1-0.4,1-1s-0.4-1-1-1V7z M1,7h16V5H1V7z"/>
	<path id="path2_stroke" class="st0" d="M1,10c-0.6,0-1,0.4-1,1c0,0.6,0.4,1,1,1V10z M17,12c0.6,0,1-0.4,1-1c0-0.6-0.4-1-1-1V12z
		 M1,12h16v-2H1V12z"/>
	<path id="path1_stroke_1_" class="st0" d="M1,15c-0.6,0-1,0.4-1,1c0,0.6,0.4,1,1,1V15z M17,17c0.6,0,1-0.4,1-1c0-0.6-0.4-1-1-1V17z
		 M1,17h16v-2H1V17z"/>
</g>
</svg>
